-設定履歴-設定期間,設定区分,項目
2009/07/09~2009/07/09,予約経路,法人会員
2009/07/09~2009/07/09,予約経路,従業員
2009/07/09~2009/07/09,旅行目的,(/結婚記念日のお祝い)
2009/07/09~2009/07/09,旅行目的,(/挙式の下見・宿泊)
2009/07/09~2009/07/09,旅行目的,(/仕事)
2009/07/09~2009/07/09,客種区分,(/KＧ個人グループ)
2009/07/09~2009/07/09,客種区分,(/F（家族カテゴリ）)
2009/07/09~2009/07/09,客種区分,(/F（家族カテゴリ）/F中 家族中高大)
2009/07/09~2009/07/09,客種区分,(/Ｈおひとり)
2009/07/09~2009/07/09,客種区分,(/O その他)
2009/07/09~2009/07/09,客種,滞在2回顧客
2009/07/09~2009/07/09,客種,滞在3回以降顧客
2009/07/09~2009/07/09,マーケティング地域,北アメリカ
2009/07/09~2009/07/09,マーケティング地域,カリフォルニア
2009/07/09~2009/07/09,マーケティング地域,カナダ
2009/07/09~2009/07/09,マーケティング地域,ワシントンDC
2009/07/09~2009/07/09,マーケティング地域,フロリダ
2009/07/09~2009/07/09,マーケティング地域,イリノイ
2009/07/09~2009/07/09,マーケティング地域,ニュージャージー
2009/07/09~2009/07/09,マーケティング地域,ニューヨーク
2009/07/09~2009/07/09,マーケティング地域,テキサス
2009/07/09~2009/07/09,マーケティング地域,アメリカ合衆国
2009/07/09~2009/07/09,マーケティング地域,アメリカその他
2009/07/09~2009/07/09,マーケティング地域,南アメリカ
2009/07/09~2009/07/09,マーケティング地域,アルゼンチン
2009/07/09~2009/07/09,マーケティング地域,ブラジル
2009/07/09~2009/07/09,マーケティング地域,チリ
2009/07/09~2009/07/09,マーケティング地域,メキシコ
2009/07/09~2009/07/09,マーケティング地域,中南米
2009/07/09~2009/07/09,マーケティング地域,ヨーロッパ
2009/07/09~2009/07/09,マーケティング地域,オーストリア
2009/07/09~2009/07/09,マーケティング地域,ベルギー
2009/07/09~2009/07/09,マーケティング地域,イギリス
2009/07/09~2009/07/09,マーケティング地域,スペイン
2009/07/09~2009/07/09,マーケティング地域,ヨーロッパ（その他）
2009/07/09~2009/07/09,マーケティング地域,ヨーロッパ
2009/07/09~2009/07/09,マーケティング地域,フランス
2009/07/09~2009/07/09,マーケティング地域,ドイツ
2009/07/09~2009/07/09,マーケティング地域,イタリア
2009/07/09~2009/07/09,マーケティング地域,ロシア
2009/07/09~2009/07/09,マーケティング地域,スウェーデン
2009/07/09~2009/07/09,マーケティング地域,スイス
2009/07/09~2009/07/09,マーケティング地域,アジア
2009/07/09~2009/07/09,マーケティング地域,アジア（その他）
2009/07/09~2009/07/09,マーケティング地域,エジプト
2009/07/09~2009/07/09,マーケティング地域,香港
2009/07/09~2009/07/09,マーケティング地域,インド
2009/07/09~2009/07/09,マーケティング地域,イラン
2009/07/09~2009/07/09,マーケティング地域,イスラエル
2009/07/09~2009/07/09,マーケティング地域,ヨルダン
2009/07/09~2009/07/09,マーケティング地域,韓国
2009/07/09~2009/07/09,マーケティング地域,クウェート
2009/07/09~2009/07/09,マーケティング地域,中近東
2009/07/09~2009/07/09,マーケティング地域,マレーシア
2009/07/09~2009/07/09,マーケティング地域,パキスタン
2009/07/09~2009/07/09,マーケティング地域,フィリピン
2009/07/09~2009/07/09,マーケティング地域,中国
2009/07/09~2009/07/09,マーケティング地域,台湾
2009/07/09~2009/07/09,マーケティング地域,サウジアラビア
2009/07/09~2009/07/09,マーケティング地域,シンガポール
2009/07/09~2009/07/09,マーケティング地域,タイ
2009/07/09~2009/07/09,マーケティング地域,オセアニア
2009/07/09~2009/07/09,マーケティング地域,オーストラリア
2009/07/09~2009/07/09,マーケティング地域,アイルランド
2009/07/09~2009/07/09,マーケティング地域,ニュージーランド
2009/07/09~2009/07/09,マーケティング地域,オセアニア（その他）
2009/07/09~2009/07/09,マーケティング地域,アフリカ
2009/07/09~2009/07/09,マーケティング地域,アフリカ全土
2009/07/09~2009/07/09,マーケティング地域,海外その他
2009/07/09~2009/07/09,マーケティング地域,その他不明
2009/07/09~2009/07/23,旅行目的,(/結婚記念日のお祝い)
2009/07/09~2009/07/23,旅行目的,(/挙式の下見・宿泊)
2009/07/09~2009/07/23,旅行目的,(/仕事)
2009/07/09~2009/07/23,客種区分,(/KＧ個人グループ)
2009/07/09~2009/07/23,客種区分,(/F（家族カテゴリ）)
2009/07/09~2009/07/23,客種区分,(/F（家族カテゴリ）/F中 家族中高大)
2009/07/09~2009/07/23,客種区分,(/Ｈおひとり)
2009/07/09~2009/07/23,客種区分,(/O その他)
2009/07/09~2009/07/23,客種,滞在2回顧客
2009/07/09~2009/07/23,客種,滞在3回以降顧客
2009/07/09~2009/07/23,マーケティング地域,北アメリカ
2009/07/09~2009/07/23,マーケティング地域,カリフォルニア
2009/07/09~2009/07/23,マーケティング地域,カナダ
2009/07/09~2009/07/23,マーケティング地域,ワシントンDC
2009/07/09~2009/07/23,マーケティング地域,フロリダ
2009/07/09~2009/07/23,マーケティング地域,イリノイ
2009/07/09~2009/07/23,マーケティング地域,ニュージャージー
2009/07/09~2009/07/23,マーケティング地域,ニューヨーク
2009/07/09~2009/07/23,マーケティング地域,テキサス
2009/07/09~2009/07/23,マーケティング地域,アメリカ合衆国
2009/07/09~2009/07/23,マーケティング地域,アメリカその他
2009/07/09~2009/07/23,マーケティング地域,南アメリカ
2009/07/09~2009/07/23,マーケティング地域,アルゼンチン
2009/07/09~2009/07/23,マーケティング地域,ブラジル
2009/07/09~2009/07/23,マーケティング地域,チリ
2009/07/09~2009/07/23,マーケティング地域,メキシコ
2009/07/09~2009/07/23,マーケティング地域,中南米
2009/07/09~2009/07/23,マーケティング地域,ヨーロッパ
2009/07/09~2009/07/23,マーケティング地域,オーストリア
2009/07/09~2009/07/23,マーケティング地域,ベルギー
2009/07/09~2009/07/23,マーケティング地域,イギリス
2009/07/09~2009/07/23,マーケティング地域,スペイン
2009/07/09~2009/07/23,マーケティング地域,ヨーロッパ（その他）
2009/07/09~2009/07/23,マーケティング地域,ヨーロッパ
2009/07/09~2009/07/23,マーケティング地域,フランス
2009/07/09~2009/07/23,マーケティング地域,ドイツ
2009/07/09~2009/07/23,マーケティング地域,イタリア
2009/07/09~2009/07/23,マーケティング地域,ロシア
2009/07/09~2009/07/23,マーケティング地域,スウェーデン
2009/07/09~2009/07/23,マーケティング地域,スイス
2009/07/09~2009/07/23,マーケティング地域,アジア
2009/07/09~2009/07/23,マーケティング地域,アジア（その他）
2009/07/09~2009/07/23,マーケティング地域,エジプト
2009/07/09~2009/07/23,マーケティング地域,香港
2009/07/09~2009/07/23,マーケティング地域,インド
2009/07/09~2009/07/23,マーケティング地域,イラン
2009/07/09~2009/07/23,マーケティング地域,イスラエル
2009/07/09~2009/07/23,マーケティング地域,ヨルダン
2009/07/09~2009/07/23,マーケティング地域,韓国
2009/07/09~2009/07/23,マーケティング地域,クウェート
2009/07/09~2009/07/23,マーケティング地域,中近東
2009/07/09~2009/07/23,マーケティング地域,マレーシア
2009/07/09~2009/07/23,マーケティング地域,パキスタン
2009/07/09~2009/07/23,マーケティング地域,フィリピン
2009/07/09~2009/07/23,マーケティング地域,中国
2009/07/09~2009/07/23,マーケティング地域,台湾
2009/07/09~2009/07/23,マーケティング地域,サウジアラビア
2009/07/09~2009/07/23,マーケティング地域,シンガポール
2009/07/09~2009/07/23,マーケティング地域,タイ
2009/07/09~2009/07/23,マーケティング地域,オセアニア
2009/07/09~2009/07/23,マーケティング地域,オーストラリア
2009/07/09~2009/07/23,マーケティング地域,アイルランド
2009/07/09~2009/07/23,マーケティング地域,ニュージーランド
2009/07/09~2009/07/23,マーケティング地域,オセアニア（その他）
2009/07/09~2009/07/23,マーケティング地域,アフリカ
2009/07/09~2009/07/23,マーケティング地域,アフリカ全土
2009/07/09~2009/07/23,マーケティング地域,海外その他
2009/07/09~2009/07/23,マーケティング地域,その他不明
2009/07/23~,旅行目的,(/結婚記念日のお祝い)
2009/07/23~,旅行目的,(/挙式の下見・宿泊)
2009/07/23~,旅行目的,(/仕事)
2009/07/23~,客種区分,(/KＧ個人グループ)
2009/07/23~,客種区分,(/F（家族カテゴリ）)
2009/07/23~,客種区分,(/F（家族カテゴリ）/F中 家族中高大)
2009/07/23~,客種区分,(/Ｈおひとり)
2009/07/23~,客種区分,(/O その他)
2009/07/23~,客種,滞在2回顧客
2009/07/23~,客種,滞在3回以降顧客
2009/07/23~,マーケティング地域,北アメリカ
2009/07/23~,マーケティング地域,カリフォルニア
2009/07/23~,マーケティング地域,カナダ
2009/07/23~,マーケティング地域,ワシントンDC
2009/07/23~,マーケティング地域,フロリダ
2009/07/23~,マーケティング地域,イリノイ
2009/07/23~,マーケティング地域,ニュージャージー
2009/07/23~,マーケティング地域,ニューヨーク
2009/07/23~,マーケティング地域,テキサス
2009/07/23~,マーケティング地域,アメリカ合衆国
2009/07/23~,マーケティング地域,アメリカその他
2009/07/23~,マーケティング地域,南アメリカ
2009/07/23~,マーケティング地域,アルゼンチン
2009/07/23~,マーケティング地域,ブラジル
2009/07/23~,マーケティング地域,チリ
2009/07/23~,マーケティング地域,メキシコ
2009/07/23~,マーケティング地域,中南米
2009/07/23~,マーケティング地域,ヨーロッパ
2009/07/23~,マーケティング地域,オーストリア
2009/07/23~,マーケティング地域,ベルギー
2009/07/23~,マーケティング地域,イギリス
2009/07/23~,マーケティング地域,スペイン
2009/07/23~,マーケティング地域,ヨーロッパ（その他）
2009/07/23~,マーケティング地域,ヨーロッパ
2009/07/23~,マーケティング地域,フランス
2009/07/23~,マーケティング地域,ドイツ
2009/07/23~,マーケティング地域,イタリア
2009/07/23~,マーケティング地域,ロシア
2009/07/23~,マーケティング地域,スウェーデン
2009/07/23~,マーケティング地域,スイス
2009/07/23~,マーケティング地域,アジア
2009/07/23~,マーケティング地域,アジア（その他）
2009/07/23~,マーケティング地域,エジプト
2009/07/23~,マーケティング地域,香港
2009/07/23~,マーケティング地域,インド
2009/07/23~,マーケティング地域,イラン
2009/07/23~,マーケティング地域,イスラエル
2009/07/23~,マーケティング地域,ヨルダン
2009/07/23~,マーケティング地域,韓国
2009/07/23~,マーケティング地域,クウェート
2009/07/23~,マーケティング地域,中近東
2009/07/23~,マーケティング地域,マレーシア
2009/07/23~,マーケティング地域,パキスタン
2009/07/23~,マーケティング地域,フィリピン
2009/07/23~,マーケティング地域,中国
2009/07/23~,マーケティング地域,台湾
2009/07/23~,マーケティング地域,サウジアラビア
2009/07/23~,マーケティング地域,シンガポール
2009/07/23~,マーケティング地域,タイ
2009/07/23~,マーケティング地域,オセアニア
2009/07/23~,マーケティング地域,オーストラリア
2009/07/23~,マーケティング地域,アイルランド
2009/07/23~,マーケティング地域,ニュージーランド
2009/07/23~,マーケティング地域,オセアニア（その他）
2009/07/23~,マーケティング地域,アフリカ
2009/07/23~,マーケティング地域,アフリカ全土
2009/07/23~,マーケティング地域,海外その他
2009/07/23~,マーケティング地域,その他不明
